…
[Rows: 120 Columns: 6]

******************************Manipulating the Data with dplyr**************************

SELECT "Retrieving the data we want to use"

A tibble: 120 x 2
    year extra_large_dozen
   <dbl>             <dbl>
 1  2004              230 
 2  2004              230 
 3  2004              230 
 4  2004              234.
 5  2004              236 
 6  2004              241 
 7  2004              241 
 8  2004              241 
 9  2004              241 
10  2004              241 
# ... with 110 more rows
…
