DACSS 601 Fall 2021: Homework 2
…
Tibble

You can also use tibble directly, which is part of tidyverse, to create a table for your data.

library(tidyverse)
 library(here)
 Eggs <- read_csv(here("_data,eggs_tidy.csv"))
 as_tibble(Eggs)

# A tibble: 120 x 6
   month      year large_half_dozen large_dozen extra_large_half_dozen
   <chr>     <dbl>            <dbl>       <dbl>                  <dbl>
 1 January    2004             126         230                    132 
 2 February   2004             128.        226.                   134.
 3 March      2004             131         225                    137 
 4 April      2004             131         225                    137 
 5 May        2004             131         225                    137 
 6 June       2004             134.        231.                   137 
 7 July       2004             134.        234.                   137 
 8 August     2004             134.        234.                   137 
 9 September  2004             130.        234.                   136.
10 October    2004             128.        234.                   136.
# ... with 110 more rows, and 1 more variable:
#   extra_large_dozen <dbl>
…
