DACSS 601 Fall 2021: HW3 Data Wrangling
…
paged_table(organic_egg_poultry5)

At this point the data is probably ready to arrange, filter, and summarize. I am going to arrange it by Produce Type (Eggs or Chicken).

organic_egg_poultry5 <- organic_egg_poultry5
arrange(organic_egg_poultry5, ProduceType, desc(Price))

# A tibble: 1,080 x 6
   Month    Year  Produce               Amount ProduceType Price
   <chr>    <chr> <chr>                 <chr>  <chr>       <dbl>
 1 November 2012  BonelessChickenBreast Pound  Chicken      704.
 2 November 2012  BoneChickenBreast     Pound  Chicken      704.
 3 December 2012  BonelessChickenBreast Pound  Chicken      704.
 4 December 2012  BoneChickenBreast     Pound  Chicken      704.
 5 Jan      2013  BonelessChickenBreast Pound  Chicken      704.
 6 Jan      2013  BoneChickenBreast     Pound  Chicken      704.
 7 February 2013  BonelessChickenBreast Pound  Chicken      704.
 8 February 2013  BoneChickenBreast     Pound  Chicken      704.
 9 March    2013  BonelessChickenBreast Pound  Chicken      704.
10 March    2013  BoneChickenBreast     Pound  Chicken      704.
# ... with 1,070 more rows
…
