homework 3: basic data wrangling
…
We now have two columns: Month and Year. Looking at row 5, we can see that where we have a value for year, it did indeed get moved into the appropriate column. Looking at row 6, however, we can see that not all of the rows have a value for year.

I’ll now use the fill() function to fill in the remaining years. This function will automatically fill designated cells with the value in the cell above/below. It’s easy to conceptualize this function as equivalent to copying and pasting by dragging in Excel.

# fill values in Year column
cogEggs <- cogEggs %>%
  fill(Year)

#view to check
cogEggs

# A tibble: 124 x 12
   Month  Year   ...2  ...3  ...4  ...5  ...6  ...7  ...8  ...9  ...10
   <chr>  <chr>  <chr> <chr> <chr> <chr> <lgl> <chr> <chr> <chr> <chr>
 1 <NA>   <NA>    <NA>  <NA>  <NA>  <NA> NA    <NA>  <NA>  <NA>  <NA> 
 2 USDA   Certi~  <NA>  <NA>  <NA>  <NA> NA    USDA~ <NA>  <NA>  <NA> 
 3 Price  per     <NA>  <NA>  <NA>  <NA> NA    Pric~ <NA>  <NA>  <NA> 
 4 <NA>   per    "Ext~ "Ext~ "Lar~ "Lar~ NA    Whole B/S ~ Bone~ Whol~
 5 Jan    2004   "230" "132" "230" "126" NA    197.5 645.5 too ~ 193.5
 6 Febru~ 2004   "230" "134~ "226~ "128~ NA    197.5 642.5 too ~ 193.5
 7 March  2004   "230" "137" "225" "131" NA    209   642.5 too ~ 193.5
 8 April  2004   "234~ "137" "225" "131" NA    212   642.5 too ~ 193.5
 9 May    2004   "236" "137" "225" "131" NA    214.5 642.5 too ~ 193.5
10 June   2004   "241" "137" "231~ "133~ NA    216.~ 641   too ~ 201.~
# ... with 114 more rows, and 1 more variable: ...11 <chr>
…
Now let’s get rid of the the rows that don’t contain any data.

# slice all rows except 1-4
cogEggs <- cogEggs %>%
  slice(-c(1,2,3,4))

#view to check
cogEggs

# A tibble: 120 x 6
   Month     Year  xlDoz xlHalfDoz lgDoz   lgHalfDoz
   <chr>     <chr> <chr> <chr>     <chr>   <chr>    
 1 Jan       2004  230   132       230     126      
 2 February  2004  230   134.5     226.25  128.5    
 3 March     2004  230   137       225     131      
 4 April     2004  234.5 137       225     131      
 5 May       2004  236   137       225     131      
 6 June      2004  241   137       231.375 133.5    
 7 July      2004  241   137       233.5   133.5    
 8 August    2004  241   137       233.5   133.5    
 9 September 2004  241   135.875   233.5   129.75   
10 October   2004  241   135.5     233.5   128.5    
# ... with 110 more rows
…
Okay, now to actually pivot.

# pivot from wide to long
cogEggs <- cogEggs %>%
  pivot_longer(
    cols = !Month & !Year,
    names_to = c("Egg_Size", "Carton_Size"),
    names_sep = "_",
    values_to = "Price"
  )

#view to check
cogEggs

# A tibble: 480 x 5
   Month    Year  Egg_Size Carton_Size Price 
   <chr>    <chr> <chr>    <chr>       <chr> 
 1 Jan      2004  xl       Doz         230   
 2 Jan      2004  xl       HalfDoz     132   
 3 Jan      2004  lg       Doz         230   
 4 Jan      2004  lg       HalfDoz     126   
 5 February 2004  xl       Doz         230   
 6 February 2004  xl       HalfDoz     134.5 
 7 February 2004  lg       Doz         226.25
 8 February 2004  lg       HalfDoz     128.5 
 9 March    2004  xl       Doz         230   
10 March    2004  xl       HalfDoz     137   
# ... with 470 more rows
…
