Homework 3
…
I want to replace the NAs in the Footnote column with nothing due to the fact you wouldn’t see a na most of the time when it’s only referencing footnotes.

marriages <- marriages7 %>%
  replace_na(list(Footnotes = " "))
paged_table(marriages)

Summarize and Arrange

Yay now it looks somewhat clean! Lets see if I can use these two functions. I have renamed this to “marriages” since this is the final copy for this homework.

marriages %>%
arrange(marriages, "Cities")

# A tibble: 150 x 16
   Cities    `Response Clear Ye~ `Response Clear Ye~ `Response Clear ~
   <chr>                   <dbl>               <dbl>             <dbl>
 1 Adelaide                62769                70.1             26771
 2 Aston                   48455                62               29730
 3 Ballarat                65613                70.5             27405
 4 Banks                   37736                44.9             46343
 5 Barker                  42498                52.3             38827
 6 Barton                  37153                43.6             47984
 7 Bass                    36249                61.7             22510
 8 Batman                  66383                71.2             26906
 9 Bendigo                 63412                68.7             28852
10 Bennelong               42943                49.8             43215
# ... with 140 more rows, and 12 more variables:
#   Response Clear No Percantage <dbl>,
#   Total Number Response Clear <dbl>,
#   Total Response Percantage <dbl>,
#   Eligible Participants Yes Number <dbl>,
#   Eligible Participants Yes Percantage <dbl>,
#   Eligible Participants Not Clear Number <dbl>, ...
…
