Homework 3: Basic Data Wrangling
…
Arrange data in descending order of clear Yes responses

arrange(ausmarraige2, desc(Response_Clear_Yes))

# A tibble: 158 x 6
   Divisions Cities          Response_Clear_~ Response_Clear_~ Response_Not_Cl~
   <chr>     <chr>                      <dbl>            <dbl>            <dbl>
 1 <NA>      Canberra(d)                89590            31361              281
 2 <NA>      Fenner(e)                  85869            30159              253
 3 <NA>      Melbourne                  81287            15839              182
 4 <NA>      Sydney                     76144            14860              146
 5 <NA>      McEwen                     73705            39007              377
 6 <NA>      Grayndler                  73208            18429              136
 7 <NA>      Brisbane                   72812            18762              159
 8 <NA>      Newcastle                  71158            23999              232
 9 <NA>      Melbourne Ports            70589            15523              198
10 <NA>      Higgins                    70059            19375              180
# ... with 148 more rows, and 1 more variable: Non_Response <dbl>
