HW2
…
The tibble format shows the different data types for each column. We can examine the data either with the head() function that shows the first 5 or so rows. We can also use the print() function and specify how many rows and all the columns to show. This is one of the areas where tibble differentiates from the normal data.frame. We will use the nyc flight data set for this example.

# before print specifications, default 10 rows and only amount of cols that can fit in the screen 
print(nycflights13::flights)

# A tibble: 336,776 x 19
    year month   day dep_time sched_dep_time dep_delay arr_time
   <int> <int> <int>    <int>          <int>     <dbl>    <int>
 1  2013     1     1      517            515         2      830
 2  2013     1     1      533            529         4      850
 3  2013     1     1      542            540         2      923
 4  2013     1     1      544            545        -1     1004
 5  2013     1     1      554            600        -6      812
 6  2013     1     1      554            558        -4      740
 7  2013     1     1      555            600        -5      913
 8  2013     1     1      557            600        -3      709
 9  2013     1     1      557            600        -3      838
10  2013     1     1      558            600        -2      753
# ... with 336,766 more rows, and 12 more variables:
#   sched_arr_time <int>, arr_delay <dbl>, carrier <chr>,
#   flight <int>, tailnum <chr>, origin <chr>, dest <chr>,
#   air_time <dbl>, distance <dbl>, hour <dbl>, minute <dbl>,
#   time_hour <dttm>

# allow 5 rows and all columns to print 
print(nycflights13::flights, n=5, width=Inf)

# A tibble: 336,776 x 19
   year month   day dep_time sched_dep_time dep_delay arr_time
  <int> <int> <int>    <int>          <int>     <dbl>    <int>
1  2013     1     1      517            515         2      830
2  2013     1     1      533            529         4      850
3  2013     1     1      542            540         2      923
4  2013     1     1      544            545        -1     1004
5  2013     1     1      554            600        -6      812
  sched_arr_time arr_delay carrier flight tailnum origin dest 
           <int>     <dbl> <chr>    <int> <chr>   <chr>  <chr>
1            819        11 UA        1545 N14228  EWR    IAH  
2            830        20 UA        1714 N24211  LGA    IAH  
3            850        33 AA        1141 N619AA  JFK    MIA  
4           1022       -18 B6         725 N804JB  JFK    BQN  
5            837       -25 DL         461 N668DN  LGA    ATL  
  air_time distance  hour minute time_hour          
     <dbl>    <dbl> <dbl>  <dbl> <dttm>             
1      227     1400     5     15 2013-01-01 05:00:00
2      227     1416     5     29 2013-01-01 05:00:00
3      160     1089     5     40 2013-01-01 05:00:00
4      183     1576     5     45 2013-01-01 05:00:00
5      116      762     6      0 2013-01-01 06:00:00
# ... with 336,771 more rows
…
# we will use the fruit dataset for regex 
head(fruit)

[1] "apple"       "apricot"     "avocado"     "banana"     
[5] "bell pepper" "bilberry"   

# use str_view to see the regex matches 
str_view(fruit, "berry", match=TRUE)

Factors Factors are a way to create categories within your data. For instance, we might have many different types of vehicles. With factors, we can create categories of “truck”, “sedan”, “suv”, etc. Another useful aspect of the factor data type is that it can be used to sort the dataset in a specific way instead of just alphabetic. We will work with the gss_cat dataset since it has many factor data types.

gss_cat

# A tibble: 21,483 x 9
    year marital         age race  rincome partyid relig denom tvhours
   <int> <fct>         <int> <fct> <fct>   <fct>   <fct> <fct>   <int>
 1  2000 Never married    26 White $8000 ~ Ind,ne~ Prot~ Sout~      12
 2  2000 Divorced         48 White $8000 ~ Not st~ Prot~ Bapt~      NA
 3  2000 Widowed          67 White Not ap~ Indepe~ Prot~ No d~       2
 4  2000 Never married    39 White Not ap~ Ind,ne~ Orth~ Not ~       4
 5  2000 Divorced         25 White Not ap~ Not st~ None  Not ~       1
 6  2000 Married          25 White $20000~ Strong~ Prot~ Sout~      NA
 7  2000 Never married    36 White $25000~ Not st~ Chri~ Not ~       3
 8  2000 Divorced         44 White $7000 ~ Ind,ne~ Prot~ Luth~      NA
 9  2000 Married          44 White $25000~ Not st~ Prot~ Other       0
10  2000 Married          47 White $25000~ Strong~ Prot~ Sout~       3
# ... with 21,473 more rows
…
